{
  "name": "aime",
  "title": "Adventures in Middle-Earth",
  "description": "Adventures in Middle-Earth for the DND5E System.",
  "author": "Winther",
  "authors": [
    {
      "name": "Winther",
      "ko-fi": "dwinther"
    }
  ],
  "url": "https://gitlab.com/dwinther/aime-module",
  "original authors": "Alakar, Paub, Minas",
  "contributors": "ReactionMission, Padhiver",
  "version": "0.3.3",
  "compatibleCoreVersion": "9",
  "minimumCoreVersion": "9",
  "scripts": [],
  "systems": [ "dnd5e" ],
  "minimumSystemVersion": "1.5.6",
  "esmodules": [ "/aime.js" ],
  "styles": [ "/styles/aime.css" ],
  "packs": [],
  "languages": [
    {
      "lang": "en",
      "name": "English",
      "path": "lang/en.json"
    },
    {
      "lang": "de",
      "name": "Deutsch",
      "path": "lang/de.json"
    },
    {
      "lang": "es",
      "name": "Español",
      "path": "lang/es.json"
    },
    {
      "lang": "it",
      "name": "Italiano",
      "path": "lang/it.json"
    },
    {
      "lang": "fr",
      "name": "français",
      "path": "lang/fr.json"
    }
  ],
  "media": [
  {
    "type": "cover",
    "url": "https://gitlab.com/dwinther/aime-module/-/raw/master/aime-cover.jpg",
    "caption": "<Adventures in Middle-Earth>"
  }
],
  "manifest": "https://gitlab.com/dwinther/aime-module/-/raw/master/module.json",
  "download": "https://gitlab.com/dwinther/aime-module/-/archive/0.3.3/aime-module-0.3.3.zip"
}
